{"data":[{"id":"usda-food-2012128","name":"BANANA","description":"High in protein, Good carbohydrate source. Approximate nutrition facts per 32g of BANANA.","imageUrl":"https://images.unsplash.com/photo-1481349518771-20055b2a7b24?crop=entropy&cs=tinysrgb&fit=max&fm=jpg&ixid=M3w4MzI1NDB8MHwxfHNlYXJjaHwxfHxCQU5BTkF8ZW58MHwwfHx8MTc2MzUzMTM1OXww&ixlib=rb-4.1.0&q=80&w=1080","nutrients":{"protein":12.5,"carbs":40.6,"fats":3.1}}],"totalHits":5165,"currentPage":1,"pageSize":1,"hasMore":true}